{
  "WARSAW": "WAW",
  "SINGAPORE": "SIN",
  "MANILA": "MNL",
  "DUBAI": "DXB",
  "BERLIN": "BER",
  "PRAGUE": "PRG",
  "PARIS": "PAR",
  "ROME": "ROM",
  "RIO DE JANEIRO": "RIO",
  "MEXICO CITY": "MEX",
  "CAPE TOWN": "CPT",
  "ISTANBUL": "IST",
  "TOKYO": "TYO",
  "BEIJING": "BJS",
  "HONG KONG": "HKG",
  "TAIPEI": "TPE",
  "SEOUL": "SEL",
  "BAKU": "BAK",
  "TUNIS": "TUN",
  "MADRID": "MAD",
  "LONDON": "LHR",
  "HELSINKI": "HEL",
  "STOCKHOLM": "STO",
  "OSLO": "OSL",
  "BRUSSELS": "BRU",
  "DUBLIN": "DUB",
  "LUXEMBOURG": "LUX",
  "AMSTERDAM": "AMS",
  "VIENNA": "VIE",
  "FRANKFURT": "FRA",
  "BUDAPEST": "BUD",
  "BRATISLAVA": "BTS",
  "ZURICH": "ZRH",
  "ATHENS": "ATH",
  "VALLETTA": "MLA",
  "LISBON": "LIS",
  "COPENHAGEN": "CPH",
  "RIGA": "RIX",
  "VILNIUS": "VNO",
  "SYDNEY": "SYD",
  "ALGIERS": "ALG",
  "BANJUL": "BJL",
  "LAGOS": "LOS",
  "ADDIS ABABA": "ADD",
  "NAIROBI": "NBO",
  "DAR ES SALAAM": "DAR",
  "HARARE": "HRE",
  "NEW DELHI": "DEL"
}